{
    "name": "Server",
    "rootNamespace": "",
    "references": [
        "GUID:9ba42d318cb64bdff97d9f55ec13fef0"
    ],
    "includePlatforms": [],
    "excludePlatforms": [],
    "allowUnsafeCode": false,
    "overrideReferences": false,
    "precompiledReferences": [],
    "autoReferenced": false,
    "defineConstraints": [],
    "versionDefines": [],
    "noEngineReferences": true
}