{
  "dependencies": {
    "com.unity.collab-proxy": {
      "version": "2.0.5",
      "depth": 0,
      "source": "registry",
      "dependencies": {},
      "url": "https://packages.unity.com"
    },
    "com.unity.editorcoroutines": {
      "version": "1.0.0",
      "depth": 1,
      "source": "registry",
      "dependencies": {},
      "url": "https://packages.unity.com"
    },
    "com.unity.ext.nunit": {
      "version": "1.0.6",
      "depth": 2,
      "source": "registry",
      "dependencies": {},
      "url": "https://packages.unity.com"
    },
    "com.unity.feature.development": {
      "version": "1.0.1",
      "depth": 0,
      "source": "builtin",
      "dependencies": {
        "com.unity.ide.visualstudio": "2.0.18",
        "com.unity.ide.rider": "3.0.24",
        "com.unity.ide.vscode": "1.2.5",
        "com.unity.editorcoroutines": "1.0.0",
        "com.unity.performance.profile-analyzer": "1.2.2",
        "com.unity.test-framework": "1.1.33",
        "com.unity.testtools.codecoverage": "1.2.4"
      }
    },
    "com.unity.ide.rider": {
      "version": "3.0.24",
      "depth": 1,
      "source": "registry",
      "dependencies": {
        "com.unity.ext.nunit": "1.0.6"
      },
      "url": "https://packages.unity.com"
    },
    "com.unity.ide.visualstudio": {
      "version": "2.0.18",
      "depth": 1,
      "source": "registry",
      "dependencies": {
        "com.unity.test-framework": "1.1.9"
      },
      "url": "https://packages.unity.com"
    },
    "com.unity.ide.vscode": {
      "version": "1.2.5",
      "depth": 1,
      "source": "registry",
      "dependencies": {},
      "url": "https://packages.unity.com"
    },
    "com.unity.nuget.newtonsoft-json": {
      "version": "3.2.1",
      "depth": 0,
      "source": "registry",
      "dependencies": {},
      "url": "https://packages.unity.com"
    },
    "com.unity.performance.profile-analyzer": {
      "version": "1.2.2",
      "depth": 1,
      "source": "registry",
      "dependencies": {},
      "url": "https://packages.unity.com"
    },
    "com.unity.settings-manager": {
      "version": "2.0.1",
      "depth": 2,
      "source": "registry",
      "dependencies": {},
      "url": "https://packages.unity.com"
    },
    "com.unity.sysroot": {
      "version": "2.0.6",
      "depth": 1,
      "source": "registry",
      "dependencies": {},
      "url": "https://packages.unity.com"
    },
    "com.unity.sysroot.linux-x86_64": {
      "version": "2.0.5",
      "depth": 1,
      "source": "registry",
      "dependencies": {
        "com.unity.sysroot": "2.0.6"
      },
      "url": "https://packages.unity.com"
    },
    "com.unity.test-framework": {
      "version": "1.1.33",
      "depth": 1,
      "source": "registry",
      "dependencies": {
        "com.unity.ext.nunit": "1.0.6",
        "com.unity.modules.imgui": "1.0.0",
        "com.unity.modules.jsonserialize": "1.0.0"
      },
      "url": "https://packages.unity.com"
    },
    "com.unity.testtools.codecoverage": {
      "version": "1.2.4",
      "depth": 1,
      "source": "registry",
      "dependencies": {
        "com.unity.test-framework": "1.0.16",
        "com.unity.settings-manager": "1.0.1"
      },
      "url": "https://packages.unity.com"
    },
    "com.unity.textmeshpro": {
      "version": "3.0.6",
      "depth": 0,
      "source": "registry",
      "dependencies": {
        "com.unity.ugui": "1.0.0"
      },
      "url": "https://packages.unity.com"
    },
    "com.unity.timeline": {
      "version": "1.7.5",
      "depth": 0,
      "source": "registry",
      "dependencies": {
        "com.unity.modules.director": "1.0.0",
        "com.unity.modules.animation": "1.0.0",
        "com.unity.modules.audio": "1.0.0",
        "com.unity.modules.particlesystem": "1.0.0"
      },
      "url": "https://packages.unity.com"
    },
    "com.unity.toolchain.linux-x86_64": {
      "version": "2.0.5",
      "depth": 0,
      "source": "registry",
      "dependencies": {
        "com.unity.sysroot": "2.0.6",
        "com.unity.sysroot.linux-x86_64": "2.0.5"
      },
      "url": "https://packages.unity.com"
    },
    "com.unity.ugui": {
      "version": "1.0.0",
      "depth": 0,
      "source": "builtin",
      "dependencies": {
        "com.unity.modules.ui": "1.0.0",
        "com.unity.modules.imgui": "1.0.0"
      }
    },
    "com.unity.visualscripting": {
      "version": "1.8.0",
      "depth": 0,
      "source": "registry",
      "dependencies": {
        "com.unity.ugui": "1.0.0",
        "com.unity.modules.jsonserialize": "1.0.0"
      },
      "url": "https://packages.unity.com"
    },
    "org.nuget.akka": {
      "version": "1.5.8",
      "depth": 0,
      "source": "registry",
      "dependencies": {
        "org.nuget.microsoft.extensions.objectpool": "7.0.5",
        "org.nuget.newtonsoft.json": "13.0.1",
        "org.nuget.system.collections.immutable": "5.0.0",
        "org.nuget.system.configuration.configurationmanager": "6.0.1",
        "org.nuget.system.reflection.emit": "4.7.0",
        "org.nuget.system.threading.channels": "5.0.0"
      },
      "url": "https://unitynuget-registry.azurewebsites.net"
    },
    "org.nuget.microsoft.extensions.objectpool": {
      "version": "7.0.5",
      "depth": 1,
      "source": "registry",
      "dependencies": {},
      "url": "https://unitynuget-registry.azurewebsites.net"
    },
    "org.nuget.newtonsoft.json": {
      "version": "13.0.1",
      "depth": 1,
      "source": "registry",
      "dependencies": {},
      "url": "https://unitynuget-registry.azurewebsites.net"
    },
    "org.nuget.scriban": {
      "version": "5.7.0",
      "depth": 0,
      "source": "registry",
      "dependencies": {
        "org.nuget.system.threading.tasks.extensions": "4.5.0"
      },
      "url": "https://unitynuget-registry.azurewebsites.net"
    },
    "org.nuget.system.buffers": {
      "version": "4.5.1",
      "depth": 3,
      "source": "registry",
      "dependencies": {},
      "url": "https://unitynuget-registry.azurewebsites.net"
    },
    "org.nuget.system.collections.immutable": {
      "version": "5.0.0",
      "depth": 1,
      "source": "registry",
      "dependencies": {
        "org.nuget.system.memory": "4.5.4"
      },
      "url": "https://unitynuget-registry.azurewebsites.net"
    },
    "org.nuget.system.configuration.configurationmanager": {
      "version": "6.0.1",
      "depth": 1,
      "source": "registry",
      "dependencies": {
        "org.nuget.system.security.cryptography.protecteddata": "6.0.0",
        "org.nuget.system.security.permissions": "6.0.0"
      },
      "url": "https://unitynuget-registry.azurewebsites.net"
    },
    "org.nuget.system.memory": {
      "version": "4.5.4",
      "depth": 2,
      "source": "registry",
      "dependencies": {
        "org.nuget.system.buffers": "4.5.1",
        "org.nuget.system.numerics.vectors": "4.4.0",
        "org.nuget.system.runtime.compilerservices.unsafe": "4.5.3"
      },
      "url": "https://unitynuget-registry.azurewebsites.net"
    },
    "org.nuget.system.numerics.vectors": {
      "version": "4.4.0",
      "depth": 3,
      "source": "registry",
      "dependencies": {},
      "url": "https://unitynuget-registry.azurewebsites.net"
    },
    "org.nuget.system.reflection.emit": {
      "version": "4.7.0",
      "depth": 1,
      "source": "registry",
      "dependencies": {
        "org.nuget.system.reflection.emit.ilgeneration": "4.7.0"
      },
      "url": "https://unitynuget-registry.azurewebsites.net"
    },
    "org.nuget.system.reflection.emit.ilgeneration": {
      "version": "4.7.0",
      "depth": 2,
      "source": "registry",
      "dependencies": {},
      "url": "https://unitynuget-registry.azurewebsites.net"
    },
    "org.nuget.system.runtime.compilerservices.unsafe": {
      "version": "4.5.3",
      "depth": 3,
      "source": "registry",
      "dependencies": {},
      "url": "https://unitynuget-registry.azurewebsites.net"
    },
    "org.nuget.system.security.accesscontrol": {
      "version": "6.0.0",
      "depth": 3,
      "source": "registry",
      "dependencies": {
        "org.nuget.system.security.principal.windows": "5.0.0"
      },
      "url": "https://unitynuget-registry.azurewebsites.net"
    },
    "org.nuget.system.security.cryptography.protecteddata": {
      "version": "6.0.0",
      "depth": 2,
      "source": "registry",
      "dependencies": {
        "org.nuget.system.memory": "4.5.4"
      },
      "url": "https://unitynuget-registry.azurewebsites.net"
    },
    "org.nuget.system.security.permissions": {
      "version": "6.0.0",
      "depth": 2,
      "source": "registry",
      "dependencies": {
        "org.nuget.system.security.accesscontrol": "6.0.0"
      },
      "url": "https://unitynuget-registry.azurewebsites.net"
    },
    "org.nuget.system.security.principal.windows": {
      "version": "5.0.0",
      "depth": 4,
      "source": "registry",
      "dependencies": {},
      "url": "https://unitynuget-registry.azurewebsites.net"
    },
    "org.nuget.system.threading.channels": {
      "version": "5.0.0",
      "depth": 1,
      "source": "registry",
      "dependencies": {
        "org.nuget.system.threading.tasks.extensions": "4.5.4"
      },
      "url": "https://unitynuget-registry.azurewebsites.net"
    },
    "org.nuget.system.threading.tasks.extensions": {
      "version": "4.5.4",
      "depth": 2,
      "source": "registry",
      "dependencies": {
        "org.nuget.system.runtime.compilerservices.unsafe": "4.5.3"
      },
      "url": "https://unitynuget-registry.azurewebsites.net"
    },
    "com.unity.modules.ai": {
      "version": "1.0.0",
      "depth": 0,
      "source": "builtin",
      "dependencies": {}
    },
    "com.unity.modules.androidjni": {
      "version": "1.0.0",
      "depth": 0,
      "source": "builtin",
      "dependencies": {}
    },
    "com.unity.modules.animation": {
      "version": "1.0.0",
      "depth": 0,
      "source": "builtin",
      "dependencies": {}
    },
    "com.unity.modules.assetbundle": {
      "version": "1.0.0",
      "depth": 0,
      "source": "builtin",
      "dependencies": {}
    },
    "com.unity.modules.audio": {
      "version": "1.0.0",
      "depth": 0,
      "source": "builtin",
      "dependencies": {}
    },
    "com.unity.modules.cloth": {
      "version": "1.0.0",
      "depth": 0,
      "source": "builtin",
      "dependencies": {
        "com.unity.modules.physics": "1.0.0"
      }
    },
    "com.unity.modules.director": {
      "version": "1.0.0",
      "depth": 0,
      "source": "builtin",
      "dependencies": {
        "com.unity.modules.audio": "1.0.0",
        "com.unity.modules.animation": "1.0.0"
      }
    },
    "com.unity.modules.imageconversion": {
      "version": "1.0.0",
      "depth": 0,
      "source": "builtin",
      "dependencies": {}
    },
    "com.unity.modules.imgui": {
      "version": "1.0.0",
      "depth": 0,
      "source": "builtin",
      "dependencies": {}
    },
    "com.unity.modules.jsonserialize": {
      "version": "1.0.0",
      "depth": 0,
      "source": "builtin",
      "dependencies": {}
    },
    "com.unity.modules.particlesystem": {
      "version": "1.0.0",
      "depth": 0,
      "source": "builtin",
      "dependencies": {}
    },
    "com.unity.modules.physics": {
      "version": "1.0.0",
      "depth": 0,
      "source": "builtin",
      "dependencies": {}
    },
    "com.unity.modules.physics2d": {
      "version": "1.0.0",
      "depth": 0,
      "source": "builtin",
      "dependencies": {}
    },
    "com.unity.modules.screencapture": {
      "version": "1.0.0",
      "depth": 0,
      "source": "builtin",
      "dependencies": {
        "com.unity.modules.imageconversion": "1.0.0"
      }
    },
    "com.unity.modules.subsystems": {
      "version": "1.0.0",
      "depth": 1,
      "source": "builtin",
      "dependencies": {
        "com.unity.modules.jsonserialize": "1.0.0"
      }
    },
    "com.unity.modules.terrain": {
      "version": "1.0.0",
      "depth": 0,
      "source": "builtin",
      "dependencies": {}
    },
    "com.unity.modules.terrainphysics": {
      "version": "1.0.0",
      "depth": 0,
      "source": "builtin",
      "dependencies": {
        "com.unity.modules.physics": "1.0.0",
        "com.unity.modules.terrain": "1.0.0"
      }
    },
    "com.unity.modules.tilemap": {
      "version": "1.0.0",
      "depth": 0,
      "source": "builtin",
      "dependencies": {
        "com.unity.modules.physics2d": "1.0.0"
      }
    },
    "com.unity.modules.ui": {
      "version": "1.0.0",
      "depth": 0,
      "source": "builtin",
      "dependencies": {}
    },
    "com.unity.modules.uielements": {
      "version": "1.0.0",
      "depth": 0,
      "source": "builtin",
      "dependencies": {
        "com.unity.modules.ui": "1.0.0",
        "com.unity.modules.imgui": "1.0.0",
        "com.unity.modules.jsonserialize": "1.0.0"
      }
    },
    "com.unity.modules.umbra": {
      "version": "1.0.0",
      "depth": 0,
      "source": "builtin",
      "dependencies": {}
    },
    "com.unity.modules.unityanalytics": {
      "version": "1.0.0",
      "depth": 0,
      "source": "builtin",
      "dependencies": {
        "com.unity.modules.unitywebrequest": "1.0.0",
        "com.unity.modules.jsonserialize": "1.0.0"
      }
    },
    "com.unity.modules.unitywebrequest": {
      "version": "1.0.0",
      "depth": 0,
      "source": "builtin",
      "dependencies": {}
    },
    "com.unity.modules.unitywebrequestassetbundle": {
      "version": "1.0.0",
      "depth": 0,
      "source": "builtin",
      "dependencies": {
        "com.unity.modules.assetbundle": "1.0.0",
        "com.unity.modules.unitywebrequest": "1.0.0"
      }
    },
    "com.unity.modules.unitywebrequestaudio": {
      "version": "1.0.0",
      "depth": 0,
      "source": "builtin",
      "dependencies": {
        "com.unity.modules.unitywebrequest": "1.0.0",
        "com.unity.modules.audio": "1.0.0"
      }
    },
    "com.unity.modules.unitywebrequesttexture": {
      "version": "1.0.0",
      "depth": 0,
      "source": "builtin",
      "dependencies": {
        "com.unity.modules.unitywebrequest": "1.0.0",
        "com.unity.modules.imageconversion": "1.0.0"
      }
    },
    "com.unity.modules.unitywebrequestwww": {
      "version": "1.0.0",
      "depth": 0,
      "source": "builtin",
      "dependencies": {
        "com.unity.modules.unitywebrequest": "1.0.0",
        "com.unity.modules.unitywebrequestassetbundle": "1.0.0",
        "com.unity.modules.unitywebrequestaudio": "1.0.0",
        "com.unity.modules.audio": "1.0.0",
        "com.unity.modules.assetbundle": "1.0.0",
        "com.unity.modules.imageconversion": "1.0.0"
      }
    },
    "com.unity.modules.vehicles": {
      "version": "1.0.0",
      "depth": 0,
      "source": "builtin",
      "dependencies": {
        "com.unity.modules.physics": "1.0.0"
      }
    },
    "com.unity.modules.video": {
      "version": "1.0.0",
      "depth": 0,
      "source": "builtin",
      "dependencies": {
        "com.unity.modules.audio": "1.0.0",
        "com.unity.modules.ui": "1.0.0",
        "com.unity.modules.unitywebrequest": "1.0.0"
      }
    },
    "com.unity.modules.vr": {
      "version": "1.0.0",
      "depth": 0,
      "source": "builtin",
      "dependencies": {
        "com.unity.modules.jsonserialize": "1.0.0",
        "com.unity.modules.physics": "1.0.0",
        "com.unity.modules.xr": "1.0.0"
      }
    },
    "com.unity.modules.wind": {
      "version": "1.0.0",
      "depth": 0,
      "source": "builtin",
      "dependencies": {}
    },
    "com.unity.modules.xr": {
      "version": "1.0.0",
      "depth": 0,
      "source": "builtin",
      "dependencies": {
        "com.unity.modules.physics": "1.0.0",
        "com.unity.modules.jsonserialize": "1.0.0",
        "com.unity.modules.subsystems": "1.0.0"
      }
    }
  }
}
